Rotorua QC – Lake Rotorua Data Product
…
sensor_calibrations <- read_csv("data-raw/sensor_calibrations.csv", col_types = cols())
sensor_scaling <- read_csv("data-raw/sensor_scaling.csv", col_types = cols())

variable_ref <- read_csv("data-raw/variables.csv", col_types = cols())

qc_filters <- read_csv("data-raw/qc_filters.csv", col_types = cols())

qc_update_df <- read_csv("data-raw/qc_update_table.csv", col_types = cols())

sensor_map <- map_sensors(site_devices = site_devices, 
                          device_var = device_var, 
                          device_position = device_position)
sensor_map

# A tibble: 65 × 8
   site     device_id date_from           date_to             var_abbr reference
   <chr>    <chr>     <dttm>              <dttm>              <chr>    <chr>    
 1 f_Rotor… wip_ZT_h… 2010-02-05 18:15:00 2022-01-18 04:00:00 <NA>     <NA>     
 2 f_Rotor… sns_ZT_d… 2007-07-13 12:00:00 2015-08-21 12:00:00 c_do     d        
 3 f_Rotor… sns_IS_r… 2015-10-23 10:00:00 2022-01-18 04:00:00 c_do     d        
 4 f_Rotor… sns_ZT_d… 2007-07-13 12:00:00 2010-11-09 12:15:00 c_do     d        
 5 f_Rotor… sns_ZT_d… 2010-11-09 12:15:00 2012-04-29 06:09:00 c_do     d        
 6 f_Rotor… sns_ZT_d… 2012-04-29 06:09:00 2022-01-22 13:54:00 c_do     d        
 7 f_Rotor… sns_ZT_d… 2007-07-13 12:00:00 2015-08-21 12:00:00 c_do_sat d        
 8 f_Rotor… sns_IS_r… 2015-10-23 10:00:00 2022-01-18 04:00:00 c_do_sat d        
 9 f_Rotor… sns_ZT_d… 2007-07-13 12:00:00 2010-11-09 12:15:00 c_do_sat d        
10 f_Rotor… sns_ZT_d… 2010-11-09 12:15:00 2012-04-29 06:09:00 c_do_sat d        
# ℹ 55 more rows
# ℹ 2 more variables: z_relative <dbl>, var_ref_id <chr>
…
raw_long_device |> 
  filter(qc_flag == "sensor_fault") 

# A tibble: 94,640 × 9
   site     datetime            device_id var_abbr var_ref_id raw_value qc_value
   <chr>    <dttm>              <chr>     <chr>    <chr>          <dbl>    <dbl>
 1 f_Rotor… 2013-07-18 17:00:00 sns_ZT_d… c_do     c_do_d100       11.4       NA
 2 f_Rotor… 2013-07-18 17:15:00 sns_ZT_d… c_do     c_do_d100       11.4       NA
 3 f_Rotor… 2013-07-18 17:30:00 sns_ZT_d… c_do     c_do_d100       11.4       NA
 4 f_Rotor… 2013-07-18 17:45:00 sns_ZT_d… c_do     c_do_d100       11.4       NA
 5 f_Rotor… 2013-07-18 18:00:00 sns_ZT_d… c_do     c_do_d100       11.4       NA
 6 f_Rotor… 2013-07-18 18:15:00 sns_ZT_d… c_do     c_do_d100       11.4       NA
 7 f_Rotor… 2013-07-18 18:30:00 sns_ZT_d… c_do     c_do_d100       11.3       NA
 8 f_Rotor… 2013-07-18 18:45:00 sns_ZT_d… c_do     c_do_d100       11.3       NA
 9 f_Rotor… 2013-07-18 19:00:00 sns_ZT_d… c_do     c_do_d100       11.3       NA
10 f_Rotor… 2013-07-18 19:15:00 sns_ZT_d… c_do     c_do_d100       11.2       NA
# ℹ 94,630 more rows
# ℹ 2 more variables: qc_flag <chr>, qc_code <chr>
…
high_temp <- wtemp |> 
  filter(var_ref_id %in% c("t_wtr_d2050"), raw_value >= 22,raw_value <= 35) |> 
  mutate(over_22 = raw_value > 22,
         tdiff = datetime - lag(datetime, default = first(datetime)),
         group = data.table::rleid(tdiff)
  ) |> 
  group_by(var_ref_id, group) |>
  mutate(n = n(), tstep = 1:n() * 15, date = datetime[1]) |> 
  filter(n > 1, max(tstep) >= 60) |> 
  ungroup() |> 
  filter(group %in% sample(unique(group), size = 20))
high_temp

# A tibble: 1,669 × 15
   datetime            var_ref_id  site    device_id var_abbr raw_value qc_value
   <dttm>              <chr>       <chr>   <chr>     <chr>        <dbl>    <dbl>
 1 2007-12-21 12:45:00 t_wtr_d2050 f_Roto… sns_Ap_t… t_wtr         22.2     NA  
 2 2007-12-21 13:00:00 t_wtr_d2050 f_Roto… sns_Ap_t… t_wtr         22.4     NA  
 3 2007-12-21 13:15:00 t_wtr_d2050 f_Roto… sns_Ap_t… t_wtr         22.5     NA  
 4 2007-12-21 13:30:00 t_wtr_d2050 f_Roto… sns_Ap_t… t_wtr         22.6     NA  
 5 2008-01-19 16:15:00 t_wtr_d2050 f_Roto… sns_Ap_t… t_wtr         22.2     22.2
 6 2008-01-19 16:30:00 t_wtr_d2050 f_Roto… sns_Ap_t… t_wtr         22.2     22.2
 7 2008-01-19 16:45:00 t_wtr_d2050 f_Roto… sns_Ap_t… t_wtr         22.2     22.2
 8 2008-01-19 17:00:00 t_wtr_d2050 f_Roto… sns_Ap_t… t_wtr         22.2     22.2
 9 2008-01-19 17:15:00 t_wtr_d2050 f_Roto… sns_Ap_t… t_wtr         22.2     22.2
10 2008-01-19 17:30:00 t_wtr_d2050 f_Roto… sns_Ap_t… t_wtr         22.2     22.2
# ℹ 1,659 more rows
# ℹ 8 more variables: qc_flag <chr>, qc_code <chr>, over_22 <lgl>,
#   tdiff <drtn>, group <int>, n <int>, tstep <dbl>, date <dttm>
…
